Project/Int_ALU/Verilog/alu/alu.vcd
$date
	Thu Nov 30 23:04:42 2023
$end
$version
	Icarus Verilog
$end
$timescale
	1s
$end
$scope module alu_tb $end
$var reg 1 ! clk $end
$upscope $end
$scope module alu_tb $end
$var reg 4 " x [3:0] $end
$upscope $end
$scope module alu_tb $end
$var reg 4 # y [3:0] $end
$upscope $end
$scope module alu_tb $end
$var wire 4 $ out [3:0] $end
$upscope $end
$scope module alu_tb $end
$var reg 4 % op [3:0] $end
$upscope $end
$scope module alu_tb $end
$var wire 1 & cout $end
$upscope $end
$enddefinitions $end
#0
$dumpvars
0&
bx %
bx $
bx #
bx "
0!
$end
#5
1!
#10
b1001 $
0!
b1 %
b11 #
b110 "
#15
1!
#20
b11 $
0!
b10 %
#25
1!
#30
1&
b10 $
0!
b11 %
#35
1!
#40
0&
0!
b100 %
#45
1!
#50
b1101 $
0!
b101 %
#55
1!
#60
b111 $
0!
b110 %
#65
1!
#70
b1000 $
0!
b111 %
#75
1!
#80
b101 $
0!
b1000 %
#85
1!
#90
b1010 $
0!
b1001 %
#95
1!
#100
b1001 $
0!
b1010 %
#105
1!
#110
b1000 $
0!
b1011 %
